// Jest Snapshot v1, https://goo.gl/fbAQLP

exports[`AllTodos Component Tests should render 4 Todo components when mockTodos are passed as allTodos 1`] = `
<div
  className="container"
>
  <h3>
    Todos List
  </h3>
  <table
    className="table table-striped"
  >
    <thead>
      <tr>
        <th>
          Description
        </th>
        <th>
          Date Created
        </th>
        <th>
          Action
        </th>
      </tr>
    </thead>
    <tbody>
      <Todo
        key="5cc08495bf3fd62d03f2f4c1"
        todo={
          Object {
            "_id": "5cc08495bf3fd62d03f2f4c1",
            "todoCompleted": true,
            "todoDateCreated": "2019-05-04T15:00:00.000Z",
            "todoDescription": "Sample Todo 1",
          }
        }
      />
      <Todo
        key="5cc08495bf3fd62d03f2f4c2"
        todo={
          Object {
            "_id": "5cc08495bf3fd62d03f2f4c2",
            "todoCompleted": true,
            "todoDateCreated": "2019-05-04T15:30:00.000Z",
            "todoDescription": "Sample Todo 2",
          }
        }
      />
      <Todo
        key="5cc08495bf3fd62d03f2f4c3"
        todo={
          Object {
            "_id": "5cc08495bf3fd62d03f2f4c3",
            "todoCompleted": false,
            "todoDateCreated": "2019-05-04T15:45:00.000Z",
            "todoDescription": "Sample Todo 3",
          }
        }
      />
      <Todo
        key="5cc08495bf3fd62d03f2f4c4"
        todo={
          Object {
            "_id": "5cc08495bf3fd62d03f2f4c4",
            "todoCompleted": false,
            "todoDateCreated": "2019-05-04T16:00:00.000Z",
            "todoDescription": "Sample Todo 4",
          }
        }
      />
    </tbody>
  </table>
</div>
`;

exports[`AllTodos Component Tests should render with the error message in the table when allTodos is an empty array 1`] = `
<div
  className="container"
>
  <h3>
    Todos List
  </h3>
  <table
    className="table table-striped"
  >
    <thead>
      <tr>
        <th>
          Description
        </th>
        <th>
          Date Created
        </th>
        <th>
          Action
        </th>
      </tr>
    </thead>
    <tbody>
      <tr
        key="error"
      >
        <td
          colSpan="3"
        >
          There has been an error retrieving the todos
        </td>
      </tr>
    </tbody>
  </table>
</div>
`;

exports[`AllTodos Component Tests should render with the loading message in the table when the loading prop is true 1`] = `
<div
  className="container"
>
  <h3>
    Todos List
  </h3>
  <table
    className="table table-striped"
  >
    <thead>
      <tr>
        <th>
          Description
        </th>
        <th>
          Date Created
        </th>
        <th>
          Action
        </th>
      </tr>
    </thead>
    <tbody>
      <tr
        key="loading"
      >
        <td
          colSpan="3"
        >
          Please wait - retrieving the todos
        </td>
      </tr>
    </tbody>
  </table>
</div>
`;

exports[`AllTodos Component Tests should render without errors when appropriate props are supplied 1`] = `
<div
  className="container"
>
  <h3>
    Todos List
  </h3>
  <table
    className="table table-striped"
  >
    <thead>
      <tr>
        <th>
          Description
        </th>
        <th>
          Date Created
        </th>
        <th>
          Action
        </th>
      </tr>
    </thead>
    <tbody>
      <tr
        key="error"
      >
        <td
          colSpan="3"
        >
          There has been an error retrieving the todos
        </td>
      </tr>
    </tbody>
  </table>
</div>
`;
